36-613: Data Visualization
…
Compute and join TF-IDF using `bind_tf_idf()`:

```r
character_token_summary <- tidy_dinner_party_tokens %>%
* group_by(character, stem) %>%
  count() %>%
  ungroup() 

character_token_summary <- character_token_summary %>%
* bind_tf_idf(stem, character, n)
character_token_summary
```

```
## # A tibble: 597 × 6
##    character stem        n     tf   idf tf_idf
##    <chr>     <chr>   <int>  <dbl> <dbl>  <dbl>
##  1 All       cheer       1 1      2.77  2.77  
##  2 Andy      anim        1 0.0476 2.77  0.132 
##  3 Andy      bet         1 0.0476 2.08  0.0990
##  4 Andy      capit       1 0.0476 2.77  0.132 
##  5 Andy      dinner      1 0.0476 0.981 0.0467
##  6 Andy      flower      2 0.0952 2.77  0.264 
##  7 Andy      hei         1 0.0476 1.39  0.0660
##  8 Andy      helena      1 0.0476 2.77  0.132 
##  9 Andy      hump        2 0.0952 2.77  0.264 
## 10 Andy      michael     1 0.0476 0.981 0.0467
## # … with 587 more rows
## # ℹ Use `print(n = ...)` to see more rows
```
…
- The __Bing__ dictionary (named after Bing Liu) provides 6,786 words that are either "positive" or "negative"

---

## Character sentiment analysis

.pull-left[

```r
get_sentiments("bing")
```

```
## # A tibble: 6,786 × 2
##    word        sentiment
##    <chr>       <chr>    
##  1 2-faces     negative 
##  2 abnormal    negative 
##  3 abolish     negative 
##  4 abominable  negative 
##  5 abominably  negative 
##  6 abominate   negative 
##  7 abomination negative 
##  8 abort       negative 
##  9 aborted     negative 
## 10 aborts      negative 
## # … with 6,776 more rows
## # ℹ Use `print(n = ...)` to see more rows
```
…
